<svg width="23" height="23" viewBox="0 0 23 23" fill="none" xmlns="http://www.w3.org/2000/svg">
<rect x="5" y="23" width="5" height="23" transform="rotate(180 5 23)" fill="#E0261B"/>
<path d="M23 0V4.6H4.6L0.164286 0L23 0Z" fill="#B4261D"/>
</svg>
