<svg width="32" height="28" viewBox="0 0 32 28" fill="none" xmlns="http://www.w3.org/2000/svg">
<g clip-path="url(#clip0)">
<path d="M30.1699 12.869H1.9751C1.29083 12.869 0.736084 13.3753 0.736084 14C0.736084 14.6247 1.29083 15.1311 1.9751 15.1311H30.1699C30.8542 15.1311 31.4089 14.6247 31.4089 14C31.4089 13.3754 30.8542 12.869 30.1699 12.869Z" fill="#20212A"/>
<path d="M30.1699 4.28961H1.9751C1.29083 4.28961 0.736084 4.79602 0.736084 5.42066C0.736084 6.0453 1.29083 6.55171 1.9751 6.55171H30.1699C30.8542 6.55171 31.4089 6.0453 31.4089 5.42066C31.4089 4.79602 30.8542 4.28961 30.1699 4.28961Z" fill="#20212A"/>
<path d="M30.1699 21.4483H1.9751C1.29083 21.4483 0.736084 21.9547 0.736084 22.5794C0.736084 23.204 1.29083 23.7104 1.9751 23.7104H30.1699C30.8542 23.7104 31.4089 23.204 31.4089 22.5794C31.4089 21.9547 30.8542 21.4483 30.1699 21.4483Z" fill="#20212A"/>
</g>
<defs>
<clipPath id="clip0">
<rect width="30.6728" height="28" fill="white" transform="translate(0.736084)"/>
</clipPath>
</defs>
</svg>
