<svg width="30" height="31" viewBox="0 0 30 31" fill="none" xmlns="http://www.w3.org/2000/svg">
<g clip-path="url(#clip0)">
<path d="M26.25 0H3.75C1.68187 0 0 1.68694 0 3.7613V26.3291C0 28.4034 1.68187 30.0904 3.75 30.0904H26.25C28.3181 30.0904 30 28.4034 30 26.3291V3.7613C30 1.68694 28.3181 0 26.25 0Z" fill="#1976D2"/>
<path d="M25.3125 15.0451H20.625V11.2838C20.625 10.2457 21.465 10.3435 22.5 10.3435H24.375V5.64185H20.625C17.5181 5.64185 15 8.16756 15 11.2838V15.0451H11.25V19.7467H15V30.0903H20.625V19.7467H23.4375L25.3125 15.0451Z" fill="#FAFAFA"/>
</g>
<defs>
<clipPath id="clip0">
<rect width="30" height="30.0904" fill="white"/>
</clipPath>
</defs>
</svg>
