<svg width="13" height="18" viewBox="0 0 13 18" fill="none" xmlns="http://www.w3.org/2000/svg">
<path fill-rule="evenodd" clip-rule="evenodd" d="M6.5 0C10.0928 0 13 2.6836 13 6.00001C13 6.71485 12.9111 7.45314 12.5811 8.09767L7.95996 17.168C7.69336 17.6836 7.10938 18 6.5 18C5.89062 18 5.30664 17.6836 5.05273 17.168L0.418945 8.09767C0.0888672 7.45314 0 6.71485 0 6.00001C0 2.6836 2.90723 0 6.5 0ZM6.5 9.00001C8.29004 9.00001 9.75 7.65235 9.75 6.00001C9.75 4.34766 8.29004 3 6.5 3C4.70996 3 3.25 4.34766 3.25 6.00001C3.25 7.65235 4.70996 9.00001 6.5 9.00001Z" fill="#FF5353"/>
</svg>
