<svg width="30" height="30" viewBox="0 0 30 30" fill="none" xmlns="http://www.w3.org/2000/svg">
<path d="M25.4763 3H23.884V0H20.6995V3H7.96135V0H4.77681V3H3.18454C2.33995 3 1.52995 3.31607 0.93273 3.87868C0.335513 4.44129 0 5.20435 0 6V27C0 27.7956 0.335513 28.5587 0.93273 29.1213C1.52995 29.6839 2.33995 30 3.18454 30H11.1459V27H3.18454V10.5H25.4763V12H28.6609V6C28.6609 5.20435 28.3253 4.44129 27.7281 3.87868C27.1309 3.31607 26.3209 3 25.4763 3ZM29.7754 18.525L28.1832 20.025L24.919 17.025L26.5113 15.525C26.8313 15.2055 27.3663 15.192 27.7373 15.525L29.7754 17.445C29.9198 17.5919 30 17.7848 30 17.985C30 18.1852 29.9198 18.3781 29.7754 18.525ZM14.3304 26.91L23.9955 17.82L27.2597 20.82L17.6105 30H14.3304V26.91Z" fill="white"/>
</svg>
