<svg width="32" height="32" viewBox="0 0 32 32" fill="none" xmlns="http://www.w3.org/2000/svg">
<path d="M11.4957 28.7193C11.6108 28.8441 11.6721 29.0093 11.6661 29.179C11.6601 29.3487 11.5874 29.5091 11.4637 29.6255L10.0736 30.9254C9.94951 31.0407 9.78468 31.102 9.61536 31.0959C9.44604 31.0898 9.28607 31.0167 9.1706 30.8927L1.07524 22.1682C0.960195 22.0434 0.899091 21.8781 0.905203 21.7084C0.911315 21.5387 0.984148 21.3783 1.10788 21.262L2.49988 19.9641C2.5613 19.9069 2.63339 19.8624 2.71202 19.8331C2.79066 19.8038 2.87429 19.7902 2.95816 19.7933C3.04202 19.7963 3.12447 19.8158 3.20078 19.8507C3.2771 19.8857 3.34578 19.9353 3.40292 19.9967L11.4957 28.7193ZM21.8253 12.3033C21.9404 12.4282 22.0015 12.5934 21.9953 12.7631C21.9892 12.9328 21.9164 13.0932 21.7927 13.2095L13.0439 21.3823C12.9197 21.4976 12.7549 21.559 12.5856 21.5529C12.4163 21.5467 12.2563 21.4737 12.1408 21.3497L10.0525 19.0962C9.93748 18.9714 9.87637 18.8061 9.88248 18.6364C9.8886 18.4667 9.96143 18.3063 10.0852 18.19L18.832 10.0172C18.8934 9.96004 18.9654 9.91554 19.044 9.88624C19.1226 9.85694 19.2062 9.84342 19.29 9.84645C19.3738 9.84948 19.4562 9.86901 19.5325 9.90391C19.6087 9.93881 19.6774 9.9884 19.7344 10.0498L21.8253 12.3033ZM14.4724 25.9372C14.7117 26.1951 14.697 26.6028 14.4397 26.8434L13.0477 28.1426C12.9863 28.1998 12.9142 28.2443 12.8356 28.2736C12.7569 28.303 12.6733 28.3165 12.5894 28.3134C12.5056 28.3104 12.4231 28.2909 12.3468 28.256C12.2705 28.2211 12.2018 28.1715 12.1447 28.11L4.0538 19.3855C3.93867 19.2607 3.87746 19.0955 3.88345 18.9258C3.88944 18.7561 3.96216 18.5957 4.0858 18.4793L5.47524 17.1807C5.59936 17.0654 5.76419 17.0041 5.93351 17.0102C6.10283 17.0163 6.2628 17.0894 6.37828 17.2134L14.4724 25.9372ZM27.9527 12.6162C28.0676 12.7412 28.1286 12.9065 28.1224 13.0762C28.1162 13.2459 28.0432 13.4063 27.9194 13.5225L26.528 14.8217C26.4039 14.9371 26.239 14.9986 26.0696 14.9926C25.9002 14.9866 25.74 14.9136 25.6244 14.7897L17.5322 6.06712C17.4169 5.94239 17.3556 5.77715 17.3616 5.60741C17.3676 5.43767 17.4404 5.27718 17.5642 5.16088L18.9594 3.85848C19.0208 3.80132 19.0928 3.75682 19.1714 3.72752C19.25 3.69822 19.3336 3.6847 19.4174 3.68773C19.5012 3.69076 19.5836 3.71029 19.6598 3.74519C19.7361 3.78009 19.8047 3.82968 19.8618 3.89112L27.9527 12.6162ZM30.9248 9.83864C31.0398 9.96372 31.1008 10.129 31.0947 10.2988C31.0886 10.4685 31.0158 10.629 30.8922 10.7455L29.5034 12.0441C29.4421 12.1013 29.3701 12.1458 29.2915 12.1752C29.2129 12.2045 29.1294 12.2181 29.0456 12.2151C28.9618 12.2122 28.8793 12.1927 28.8031 12.1579C28.7268 12.123 28.6581 12.0735 28.601 12.0121L20.5101 3.28568C20.3951 3.16069 20.334 2.99542 20.34 2.82568C20.346 2.65593 20.4186 2.49538 20.5421 2.3788L21.9322 1.07768C21.9934 1.02042 22.0654 0.975817 22.1439 0.946425C22.2224 0.917033 22.3059 0.903433 22.3897 0.906406C22.4735 0.90938 22.5559 0.928867 22.6321 0.96375C22.7083 0.998633 22.7769 1.04823 22.834 1.10968L30.9248 9.83864Z" fill="white"/>
</svg>
