<svg width="15" height="18" viewBox="0 0 15 18" fill="none" xmlns="http://www.w3.org/2000/svg">
<g clip-path="url(#clip0)">
<path d="M12.2316 17.1176C12.1775 17.1176 12.1233 17.1176 12.0691 17.1176C10.3114 16.8186 8.51087 15.9963 6.94458 14.7256C5.49272 13.5296 4.16673 11.8851 3.14743 10.0164C2.00758 7.99819 1.21637 5.60622 0.858489 3.21425C0.809644 2.61626 0.869133 2.01827 1.10333 1.56977C1.33753 1.12128 1.69228 0.822281 2.1195 0.747532C2.17367 0.747532 2.22784 0.747532 2.282 0.747532H3.907C4.7195 0.747532 5.49083 1.56977 5.69075 2.69101C5.79987 3.36375 5.96315 4.03649 6.17449 4.63448C6.45832 5.45672 6.36909 6.35371 5.9907 7.02645L5.65428 7.54969C6.41418 8.89518 7.32437 10.0912 8.4268 10.9881L8.76323 10.4649C9.14772 9.86691 9.83357 9.64267 10.4538 9.94166C10.9055 10.1659 11.4052 10.3154 11.8988 10.3902C12.7235 10.5397 13.3987 11.5114 13.4903 12.6326L13.6735 14.8751C13.7223 15.4731 13.6086 16.0711 13.3142 16.4448C13.0197 16.8186 12.665 17.1176 12.2316 17.1176ZM4.02912 2.24251H2.40412C2.24162 2.24251 2.09133 2.39201 1.9952 2.54151C1.95325 2.69101 1.91129 2.8405 1.92961 3.06475C2.26917 5.23247 2.98179 7.32545 4.0011 9.19417C4.95403 10.9134 6.10531 12.4084 7.43662 13.4549C8.88847 14.6509 10.4662 15.3983 12.0553 15.6226C12.272 15.6226 12.3742 15.5478 12.4704 15.3983C12.5665 15.2488 12.6084 15.0993 12.5901 14.8751L12.407 12.6326C12.3764 12.2589 12.1353 11.9599 11.8584 11.8851C11.3106 11.8104 10.7506 11.5861 10.1846 11.2871C9.96178 11.2124 9.74512 11.2124 9.60093 11.4366L8.97614 12.4084C8.83196 12.6326 8.56723 12.7074 8.33835 12.5579C6.78427 11.4366 5.45828 9.79216 4.48093 7.77394C4.40234 7.47494 4.42598 7.1012 4.57016 6.87695L5.19496 5.90521C5.29108 5.75572 5.31472 5.38197 5.24223 5.15772C4.96451 4.41023 4.79512 3.66274 4.62573 2.91525C4.59521 2.54151 4.29995 2.24251 4.02912 2.24251ZM10.9023 7.47494C10.6315 7.47494 10.3965 7.2507 10.3118 6.87695C10.0516 5.68097 9.2742 4.78398 8.38312 4.48498C8.10618 4.41023 7.85898 4.03649 7.87652 3.588C7.90015 3.21425 8.14657 2.91525 8.47767 2.99C9.8082 3.36375 10.9473 4.70923 11.3105 6.50321C11.3952 6.87695 11.2693 7.32545 10.9504 7.4002C10.9504 7.4002 10.9565 7.47494 10.9023 7.47494ZM13.0629 7.4002C12.7921 7.4002 12.551 7.1012 12.4663 6.72745C12.0237 3.96174 10.2758 1.79402 8.18695 1.42027C7.91002 1.34552 7.66282 0.971779 7.63229 0.598034C7.60177 0.224289 7.90234 -0.074707 8.17318 -0.074707C10.7495 0.299038 12.9193 2.99 13.4771 6.50321C13.5618 6.87695 13.3757 7.2507 13.0568 7.32545C13.1171 7.4002 13.0629 7.4002 13.0629 7.4002Z" fill="#FF5353"/>
</g>
<defs>
<clipPath id="clip0">
<rect width="13" height="17.9995" fill="white" transform="matrix(1 0 0.0814097 0.996681 0 0)"/>
</clipPath>
</defs>
</svg>
