<svg width="17" height="13" viewBox="0 0 17 13" fill="none" xmlns="http://www.w3.org/2000/svg">
<path d="M16.7797 1.66964C16.1971 1.92076 15.5643 2.10156 14.9114 2.17188C15.5844 1.77009 16.0967 1.13728 16.3377 0.383928C15.715 0.75558 15.0118 1.02679 14.2786 1.16741C13.686 0.534598 12.8422 0.142857 11.9081 0.142857C10.1101 0.142857 8.66364 1.59933 8.66364 3.38728C8.66364 3.63839 8.69377 3.88951 8.74399 4.13058C6.05203 3.98995 3.65136 2.70424 2.05426 0.735491C1.77301 1.21763 1.6123 1.77009 1.6123 2.37277C1.6123 3.49777 2.18484 4.49219 3.05872 5.07478C2.52636 5.05469 2.02413 4.90402 1.59221 4.66295C1.59221 4.67299 1.59221 4.69308 1.59221 4.70312C1.59221 6.28013 2.70716 7.58594 4.19377 7.88728C3.92256 7.95759 3.63127 7.99777 3.33997 7.99777C3.12904 7.99777 2.92814 7.97768 2.72725 7.94754C3.13908 9.23326 4.33439 10.1674 5.76073 10.1975C4.64578 11.0714 3.24957 11.5837 1.73283 11.5837C1.46163 11.5837 1.21051 11.5737 0.94935 11.5435C2.38573 12.4676 4.09332 13 5.93149 13C11.898 13 15.1625 8.05804 15.1625 3.76897C15.1625 3.62835 15.1625 3.48772 15.1525 3.3471C15.7853 2.88504 16.3377 2.3125 16.7797 1.66964Z" fill="#999999"/>
</svg>
